pipeline/wave.vcd
$date
	Sat Feb 21 15:29:43 2026
$end
$version
	Icarus Verilog
$end
$timescale
	1ps
$end
$scope module tb $end
$var wire 32 ! alu_out [31:0] $end
$var reg 1 " clk $end
$var reg 32 # instr [31:0] $end
$var reg 1 $ rst $end
$scope module DUT $end
$var wire 4 % alu_op [3:0] $end
$var wire 32 & alu_out [31:0] $end
$var wire 1 ' clk $end
$var wire 32 ( instr [31:0] $end
$var wire 32 ) pc [31:0] $end
$var wire 5 * rd [4:0] $end
$var wire 32 + rd_value [31:0] $end
$var wire 1 , reg_write $end
$var wire 5 - rs1 [4:0] $end
$var wire 32 . rs1_value [31:0] $end
$var wire 5 / rs2 [4:0] $end
$var wire 32 0 rs2_value [31:0] $end
$var wire 1 1 rst $end
$var wire 1 2 zero $end
$var reg 4 3 id_ex_alu_op [3:0] $end
$var reg 5 4 id_ex_rd [4:0] $end
$var reg 1 5 id_ex_reg_write $end
$var reg 32 6 id_ex_rs1_value [31:0] $end
$var reg 32 7 id_ex_rs2_value [31:0] $end
$var reg 32 8 if_id_ir [31:0] $end
$var reg 32 9 if_id_pc [31:0] $end
$scope module IF $end
$var wire 1 ' clk $end
$var wire 1 1 rst $end
$var reg 32 : pc [31:0] $end
$upscope $end
$scope module DEC $end
$var wire 3 ; funct3 [2:0] $end
$var wire 7 < funct7 [6:0] $end
$var wire 32 = instr [31:0] $end
$var wire 7 > opcode [6:0] $end
$var wire 5 ? rd [4:0] $end
$var wire 5 @ rs1 [4:0] $end
$var wire 5 A rs2 [4:0] $end
$var reg 4 B alu_op [3:0] $end
$var reg 1 C reg_write $end
$upscope $end
$scope module RB $end
$var wire 1 ' clk $end
$var wire 5 D rd [4:0] $end
$var wire 32 E rd_value [31:0] $end
$var wire 1 F regwrite $end
$var wire 5 G rs1 [4:0] $end
$var wire 32 H rs1_value [31:0] $end
$var wire 5 I rs2 [4:0] $end
$var wire 32 J rs2_value [31:0] $end
$var wire 1 1 rst $end
$var integer 32 K i [31:0] $end
$upscope $end
$scope module ALU $end
$var wire 4 L alu_op [3:0] $end
$var wire 32 M rd_value [31:0] $end
$var wire 32 N rs1_value [31:0] $end
$var wire 32 O rs2_value [31:0] $end
$var wire 1 2 zero $end
$var reg 32 P rd_reg [31:0] $end
$upscope $end
$upscope $end
$upscope $end
$enddefinitions $end
#0
$dumpvars
b0 P
b0 O
b0 N
b0 M
b0 L
b100000 K
b0 J
b0 I
b0 H
b0 G
0F
b0 E
b0 D
0C
b0 B
b0 A
b0 @
b0 ?
b0 >
b0 =
b0 <
b0 ;
b0 :
b0 9
b0 8
b0 7
b0 6
05
b0 4
b0 3
12
11
b0 0
b0 /
b0 .
b0 -
0,
b0 +
b0 *
b0 )
b0 (
0'
b0 &
b0 %
1$
b0 #
0"
b0 !
$end
#5000
b100000 K
1"
1'
#10000
0"
0'
#15000
b100000 K
1"
1'
#20000
0"
0'
0$
01
#25000
b100 :
b100 )
1"
1'
#30000
0"
0'
#35000
b1000 :
b1000 )
b100 9
1"
1'
#40000
0"
0'
#45000
b1010 .
b1010 H
b10100 0
b10100 J
1C
1,
b11 *
b11 ?
b1 -
b1 @
b1 G
b10 /
b10 A
b10 I
b110011 >
b1000 9
b1000001000000110110011 8
b1000001000000110110011 =
b1100 :
b1100 )
1"
1'
b1000001000000110110011 #
b1000001000000110110011 (
#50000
0"
0'
#55000
b1 B
b1 %
1C
1,
02
b100 *
b100 ?
b100000 <
b11110 P
b11110 +
b11110 E
b11110 M
b11110 !
b11110 &
b10000 :
b10000 )
b1100 9
b1000000001000001000001000110011 8
b1000000001000001000001000110011 =
15
1F
b11 4
b11 D
b10100 7
b10100 O
b1010 6
b1010 N
1"
1'
b1000000001000001000001000110011 #
b1000000001000001000001000110011 (
#60000
0"
0'
#65000
1C
1,
b10 B
b10 %
b11111111111111111111111111110110 P
b11111111111111111111111111110110 +
b11111111111111111111111111110110 E
b11111111111111111111111111110110 M
b11111111111111111111111111110110 !
b11111111111111111111111111110110 &
b101 *
b101 ?
b100 ;
b0 <
b100 4
b100 D
b1 3
b1 L
b10000 9
b1000001100001010110011 8
b1000001100001010110011 =
b10100 :
b10100 )
1"
1'
b1000001100001010110011 #
b1000001100001010110011 (
#70000
0"
0'
#75000
b0 .
b0 H
b0 0
b0 J
0C
0,
b0 B
b0 %
b0 *
b0 ?
b0 -
b0 @
b0 G
b0 /
b0 A
b0 I
b0 >
b0 ;
b11110 P
b11110 +
b11110 E
b11110 M
b11110 !
b11110 &
b11000 :
b11000 )
b10100 9
b0 8
b0 =
b101 4
b101 D
b10 3
b10 L
1"
1'
b0 #
b0 (
#80000
0"
0'
#85000
12
b0 P
b0 +
b0 E
b0 M
b0 !
b0 &
05
0F
b0 4
b0 D
b0 3
b0 L
b0 7
b0 O
b0 6
b0 N
b11000 9
b11100 :
b11100 )
1"
1'
#90000
0"
0'
#95000
b100000 :
b100000 )
b11100 9
1"
1'
#100000
0"
0'
#105000
b100000 9
b100100 :
b100100 )
1"
1'
#110000
0"
0'
#115000
b101000 :
b101000 )
b100100 9
1"
1'
#120000
0"
0'
#125000
b101000 9
b101100 :
b101100 )
1"
1'
#130000
0"
0'
#135000
b110000 :
b110000 )
b101100 9
1"
1'
#140000
0"
0'
#145000
b110000 9
b110100 :
b110100 )
1"
1'
#150000
0"
0'
#155000
b111000 :
b111000 )
b110100 9
1"
1'
#160000
0"
0'
#165000
b111000 9
b111100 :
b111100 )
1"
1'
#170000
0"
0'
#175000
b1000000 :
b1000000 )
b111100 9
1"
1'
